<?xml version="1.0" encoding="utf-8"?>
<!-- Generator: Adobe Illustrator 21.0.2, SVG Export Plug-In . SVG Version: 6.00 Build 0)  -->
<svg version="1.1" id="Capa_1" xmlns="http://www.w3.org/2000/svg" xmlns:xlink="http://www.w3.org/1999/xlink" x="0px" y="0px"
	 viewBox="0 0 612 612" style="enable-background:new 0 0 612 612;" xml:space="preserve">
<style type="text/css">
	.st0{display:none;}
	.st1{display:inline;}
	.st2{fill:#010002;}
</style>
<g class="st0">
	<g class="st1">
		<path class="st2" d="M612,116.3c-22.5,10-46.7,16.7-72.1,19.8c25.9-15.5,45.8-40.2,55.2-69.4c-24.3,14.4-51.2,24.8-79.8,30.5
			c-22.9-24.4-55.5-39.7-91.6-39.7c-69.3,0-125.6,56.2-125.6,125.5c0,9.8,1.1,19.4,3.3,28.6c-104.3-5.2-196.8-55.2-258.8-131.2
			c-10.8,18.5-17,40.1-17,63.1c0,43.6,22.2,82,55.8,104.5c-20.6-0.7-39.9-6.3-56.9-15.8v1.6c0,60.8,43.3,111.6,100.7,123.1
			c-10.5,2.8-21.6,4.4-33.1,4.4c-8.1,0-15.9-0.8-23.6-2.3c16,49.9,62.3,86.2,117.3,87.2c-42.9,33.7-97.1,53.7-155.9,53.7
			c-10.1,0-20.1-0.6-29.9-1.7c55.6,35.7,121.5,56.5,192.4,56.5c230.9,0,357.2-191.3,357.2-357.2l-0.4-16.3
			C573.9,163.5,595.2,141.4,612,116.3z"/>
	</g>
</g>
<g>
	<path id="LinkedIn" d="M521.1,352.5v159h-92.2V363.2c0-37.3-13.3-62.7-46.7-62.7c-25.5,0-40.6,17.1-47.3,33.7
		c-2.4,5.9-3.1,14.2-3.1,22.5v154.9h-92.2c0,0,1.2-251.3,0-277.3h92.2v39.3c-0.2,0.3-0.4,0.6-0.6,0.9h0.6v-0.9
		c12.3-18.9,34.1-45.8,83.1-45.8C475.6,227.7,521.1,267.4,521.1,352.5z M143.2,100.6c-31.5,0-52.2,20.7-52.2,47.9
		c0,26.6,20,47.9,51,47.9h0.6c32.2,0,52.2-21.3,52.2-47.9C194.1,121.3,174.7,100.6,143.2,100.6z M96.5,511.6h92.2V234.2H96.5V511.6z
		"/>
</g>
</svg>
